…
  sf::st_as_sf(coords = c('X','Y'), crs = 4326)
## Rows: 1072 Columns: 13
## ── Column specification ─────────────────────────────────────────────────────────────────────────
## Delimiter: ","
## dbl (13): X, Y, Depression_prevelence, PopulationDensity, Population65, NoHealthInsurance, Ne...
## 
## ℹ Use `spec()` to retrieve the full column specification for this data.
## ℹ Specify the column types or set `show_col_types = FALSE` to quiet this message.
depression
## Simple feature collection with 1072 features and 11 fields
## Geometry type: POINT
## Dimension:     XY
## Bounding box:  xmin: -83.1795 ymin: 32.11464 xmax: -78.6023 ymax: 35.17354
## Geodetic CRS:  WGS 84
## # A tibble: 1,072 × 12
##    Depression_prevelence PopulationDensity Population65 NoHealthInsurance Neighbor_Disadvantage
##  *                 <dbl>             <dbl>        <dbl>             <dbl>                 <dbl>
##  1                  23.1              61.5         22.5              7.98               -0.0525
##  2                  22.8              58.3         16.8             11.0                -0.254 
##  3                  23.2              35.9         24.5              9.31               -0.0540
##  4                  21.8              76.1         21.8             13.2                 0.0731
##  5                  20.7              47.3         22.0             11                   0.763 
##  6                  21.3              32.5         19.2             13.0                 0.422 
##  7                  22                36.9         19.2             10.8                 0.113 
##  8                  21.2              61.5         15.9              8.57               -0.154 
##  9                  22.7              67.2         15.7             17.8                -0.320 
## 10                  20.6             254.          11.3             12.7                 0.457 
## # ℹ 1,062 more rows
## # ℹ 7 more variables: Beer <dbl>, MentalHealthPati <dbl>, NatureParks <dbl>, Casinos <dbl>,
## #   DrinkingPlaces <dbl>, X.HouseRent <dbl>, geometry <POINT [°]>
```
…
### Results of local zones-based power of determinat


``` r
g1$localq
## # A tibble: 30 × 6
##    Variable              Qvalue   AIC   BIC LogLik  Zone
##    <chr>                  <dbl> <dbl> <dbl>  <dbl> <int>
##  1 PopulationDensity     0.141   666.  666.  -324.     3
##  2 Population65          0.0673  677.  677.  -333.     3
##  3 NoHealthInsurance     0.0545  680.  680.  -334.     3
##  4 Neighbor_Disadvantage 0.0830  674.  674.  -331.     3
##  5 Beer                  0.0613  683.  683.  -333.     3
##  6 MentalHealthPati      0.0500  681.  681.  -335.     3
##  7 NatureParks           0.0611  679.  679.  -333.     3
##  8 Casinos               0.0490  682.  682.  -335.     3
##  9 DrinkingPlaces        0.0522  681.  681.  -334.     3
## 10 X.HouseRent           0.0590  681.  681.  -334.     3
## # ℹ 20 more rows
g2$localq
## # A tibble: 30 × 6
##    Variable              Qvalue   AIC   BIC LogLik  Zone
##    <chr>                  <dbl> <dbl> <dbl>  <dbl> <int>
##  1 PopulationDensity     0.0791  679.  679.  -331.     3
##  2 Population65          0.0713  679.  679.  -332.     3
##  3 NoHealthInsurance     0.0597  681.  681.  -334.     3
##  4 Neighbor_Disadvantage 0.0863  675.  675.  -331.     3
##  5 Beer                  0.0537  684.  684.  -334.     3
##  6 MentalHealthPati      0.0545  682.  682.  -334.     3
##  7 NatureParks           0.0657  680.  680.  -333.     3
##  8 Casinos               0.0532  682.  682.  -334.     3
##  9 DrinkingPlaces        0.0570  682.  682.  -334.     3
## 10 X.HouseRent           0.0640  682.  682.  -333.     3
## # ℹ 20 more rows
g3$localq
## # A tibble: 30 × 6
##    Variable              Qvalue   AIC   BIC LogLik  Zone
##    <chr>                  <dbl> <dbl> <dbl>  <dbl> <int>
##  1 PopulationDensity     0.141   667.  667.  -323.     3
##  2 Population65          0.0673  679.  679.  -333.     3
##  3 NoHealthInsurance     0.0543  682.  682.  -334.     3
##  4 Neighbor_Disadvantage 0.0830  676.  676.  -331.     3
##  5 Beer                  0.0611  684.  684.  -333.     3
##  6 MentalHealthPati      0.0498  683.  683.  -334.     3
##  7 NatureParks           0.0611  681.  681.  -333.     3
##  8 Casinos               0.0488  683.  683.  -334.     3
##  9 DrinkingPlaces        0.0520  683.  683.  -334.     3
## 10 X.HouseRent           0.0589  683.  683.  -334.     3
## # ℹ 20 more rows
g4$localq
## # A tibble: 30 × 6
##    Variable              Qvalue   AIC   BIC LogLik  Zone
##    <chr>                  <dbl> <dbl> <dbl>  <dbl> <int>
##  1 PopulationDensity      0.133  676.  676.  -325.     3
##  2 Population65           0.109  677.  677.  -328.     3
##  3 NoHealthInsurance      0.118  675.  675.  -327.     3
##  4 Neighbor_Disadvantage  0.114  676.  676.  -327.     3
##  5 Beer                   0.138  682.  682.  -324.     3
##  6 MentalHealthPati       0.106  686.  686.  -328.     3
##  7 NatureParks            0.182  670.  670.  -318.     3
##  8 Casinos                0.108  686.  686.  -328.     3
##  9 DrinkingPlaces         0.102  679.  679.  -329.     3
## 10 X.HouseRent            0.128  677.  677.  -325.     3
## # ℹ 20 more rows
g5$localq
## # A tibble: 30 × 4
##    Variable              Qvalue   AIC  Zone
##    <chr>                  <dbl> <dbl> <int>
##  1 PopulationDensity     0.106   664.     3
##  2 Population65          0.162   652.     3
##  3 NoHealthInsurance     0.0662  672.     3
##  4 Neighbor_Disadvantage 0.131   658.     3
##  5 Beer                  0.0619  673.     3
##  6 MentalHealthPati      0.150   658.     3
##  7 NatureParks           0.0815  669.     3
##  8 Casinos               0.138   659.     3
##  9 DrinkingPlaces        0.0849  668.     3
## 10 X.HouseRent           0.133   660.     3
## # ℹ 20 more rows
```
