…
  sf::st_as_sf(coords = c('X','Y'), crs = 4326)
## Rows: 1072 Columns: 13
## ── Column specification ───────────────────────────────────────────────────────────────────────────
## Delimiter: ","
## dbl (13): X, Y, Depression_prevelence, PopulationDensity, Population65, NoHealthInsurance, Neig...
## 
## ℹ Use `spec()` to retrieve the full column specification for this data.
## ℹ Specify the column types or set `show_col_types = FALSE` to quiet this message.
depression
## Simple feature collection with 1072 features and 11 fields
## Geometry type: POINT
## Dimension:     XY
## Bounding box:  xmin: -83.1795 ymin: 32.11464 xmax: -78.6023 ymax: 35.17354
## Geodetic CRS:  WGS 84
## # A tibble: 1,072 × 12
##    Depression_prevelence PopulationDensity Population65 NoHealthInsurance Neighbor_Disadvantage
##  *                 <dbl>             <dbl>        <dbl>             <dbl>                 <dbl>
##  1                  23.1              61.5         22.5              7.98               -0.0525
##  2                  22.8              58.3         16.8             11.0                -0.254 
##  3                  23.2              35.9         24.5              9.31               -0.0540
##  4                  21.8              76.1         21.8             13.2                 0.0731
##  5                  20.7              47.3         22.0             11                   0.763 
##  6                  21.3              32.5         19.2             13.0                 0.422 
##  7                  22                36.9         19.2             10.8                 0.113 
##  8                  21.2              61.5         15.9              8.57               -0.154 
##  9                  22.7              67.2         15.7             17.8                -0.320 
## 10                  20.6             254.          11.3             12.7                 0.457 
## # ℹ 1,062 more rows
## # ℹ 7 more variables: Beer <dbl>, MentalHealthPati <dbl>, NatureParks <dbl>, Casinos <dbl>,
## #   DrinkingPlaces <dbl>, X.HouseRent <dbl>, geometry <POINT [°]>
```
…
### Results of local zones-based power of determinat


``` r
g1$localq
## # A tibble: 30 × 6
##    Variable              Qvalue   AIC   BIC LogLik  Zone
##    <chr>                  <dbl> <dbl> <dbl>  <dbl> <int>
##  1 PopulationDensity     0.0674  677.  677.  -333.     3
##  2 Population65          0.155   660.  660.  -322.     3
##  3 NoHealthInsurance     0.0743  680.  680.  -332.     3
##  4 Neighbor_Disadvantage 0.118   665.  665.  -327.     3
##  5 Beer                  0.0529  681.  681.  -334.     3
##  6 MentalHealthPati      0.0774  679.  679.  -332.     3
##  7 NatureParks           0.0600  679.  679.  -334.     3
##  8 Casinos               0.0894  674.  674.  -330.     3
##  9 DrinkingPlaces        0.0480  682.  682.  -335.     3
## 10 X.HouseRent           0.0677  679.  679.  -333.     3
## # ℹ 20 more rows
g2$localq
## # A tibble: 30 × 6
##    Variable              Qvalue   AIC   BIC LogLik  Zone
##    <chr>                  <dbl> <dbl> <dbl>  <dbl> <int>
##  1 PopulationDensity     0.0721  678.  678.  -332.     3
##  2 Population65          0.153   662.  662.  -322.     3
##  3 NoHealthInsurance     0.0795  680.  680.  -331.     3
##  4 Neighbor_Disadvantage 0.120   667.  667.  -327.     3
##  5 Beer                  0.0994  676.  676.  -329.     3
##  6 MentalHealthPati      0.0816  680.  680.  -331.     3
##  7 NatureParks           0.0646  680.  680.  -333.     3
##  8 Casinos               0.0921  674.  674.  -330.     3
##  9 DrinkingPlaces        0.0525  683.  683.  -334.     3
## 10 X.HouseRent           0.0730  681.  681.  -332.     3
## # ℹ 20 more rows
g3$localq
## # A tibble: 30 × 6
##    Variable              Qvalue   AIC   BIC LogLik  Zone
##    <chr>                  <dbl> <dbl> <dbl>  <dbl> <int>
##  1 PopulationDensity     0.0673  679.  679.  -332.     3
##  2 Population65          0.153   660.  660.  -321.     3
##  3 NoHealthInsurance     0.0738  681.  681.  -332.     3
##  4 Neighbor_Disadvantage 0.118   667.  667.  -327.     3
##  5 Beer                  0.0964  676.  676.  -329.     3
##  6 MentalHealthPati      0.0774  681.  681.  -332.     3
##  7 NatureParks           0.0600  681.  681.  -334.     3
##  8 Casinos               0.0889  674.  674.  -330.     3
##  9 DrinkingPlaces        0.0478  683.  683.  -335.     3
## 10 X.HouseRent           0.0677  681.  681.  -333.     3
## # ℹ 20 more rows
g4$localq
## # A tibble: 30 × 6
##    Variable              Qvalue   AIC   BIC LogLik  Zone
##    <chr>                  <dbl> <dbl> <dbl>  <dbl> <int>
##  1 PopulationDensity     0.103   679.  679.  -329.     3
##  2 Population65          0.201   659.  659.  -315.     3
##  3 NoHealthInsurance     0.155   674.  674.  -322.     3
##  4 Neighbor_Disadvantage 0.136   671.  671.  -324.     3
##  5 Beer                  0.0994  680.  680.  -329.     3
##  6 MentalHealthPati      0.165   671.  671.  -320.     3
##  7 NatureParks           0.187   668.  668.  -317.     3
##  8 Casinos               0.120   679.  679.  -326.     3
##  9 DrinkingPlaces        0.0967  680.  680.  -329.     3
## 10 X.HouseRent           0.135   670.  670.  -324.     3
## # ℹ 20 more rows
g5$localq
## # A tibble: 30 × 4
##    Variable              Qvalue   AIC  Zone
##    <chr>                  <dbl> <dbl> <int>
##  1 PopulationDensity     0.191   644.     3
##  2 Population65          0.183   647.     3
##  3 NoHealthInsurance     0.0858  667.     3
##  4 Neighbor_Disadvantage 0.119   658.     3
##  5 Beer                  0.144   657.     3
##  6 MentalHealthPati      0.0963  665.     3
##  7 NatureParks           0.0849  668.     3
##  8 Casinos               0.201   643.     3
##  9 DrinkingPlaces        0.165   655.     3
## 10 X.HouseRent           0.145   657.     3
## # ℹ 20 more rows
```
…
