…
``` r
qv = mc_simq(times = 5000, cores = 12)
qv
## # A tibble: 5,000 × 3
##    qv_sed    moran moran_p
##     <dbl>    <dbl>   <dbl>
##  1  0.177  0.00782   0.312
##  2  0.136 -0.00580   0.607
##  3  0.210  0.00788   0.311
##  4  0.180  0.0145    0.194
##  5  0.180  0.0177    0.148
##  6  0.199  0.00956   0.278
##  7  0.174 -0.00721   0.637
##  8  0.195 -0.0190    0.844
##  9  0.200 -0.00940   0.682
## 10  0.167  0.0140    0.202
## # ℹ 4,990 more rows
```
…
We selected simulated q-values that are more consistent with the actual situation, specifically those for which the global Moran's I of the permuted data is statistically significant (p-value < 0.05) and greater than zero.


``` r
qv_sign = dplyr::filter(qv,moran>=0&moran_p<=0.05)
qv_sign
## # A tibble: 252 × 3
##    qv_sed  moran   moran_p
##     <dbl>  <dbl>     <dbl>
##  1  0.204 0.0308 0.0376   
##  2  0.175 0.0304 0.0395   
##  3  0.171 0.0325 0.0305   
##  4  0.189 0.0523 0.00143  
##  5  0.197 0.0296 0.0437   
##  6  0.151 0.0423 0.00774  
##  7  0.175 0.0388 0.0131   
##  8  0.191 0.0328 0.0294   
##  9  0.206 0.0331 0.0285   
## 10  0.197 0.0720 0.0000222
## # ℹ 242 more rows
```
…
