Why Is Spatially Explicit Discretization Necessary? • sesp
…
  if (doclust) {
    parallel::clusterExport(cores, varlist = c("simx","us","rho","lw","wxg"))
    out_g = parallel::parLapply(cores,parak,calcul_q)
    out_g = tibble::as_tibble(do.call(rbind, out_g))
  } else {
    out_g = purrr::map_dfr(parak,calcul_q)
  }
  return(out_g)
}

qv = mc_simq(cores = 12)
qv
## # A tibble: 19,000 × 4
##    qv_sed qv_sid  qv_bias   rho
##     <dbl>  <dbl>    <dbl> <dbl>
##  1  0.758  0.936 -0.178    0.05
##  2  0.853  0.935 -0.0823   0.05
##  3  0.936  0.933  0.00246  0.05
##  4  0.942  0.936  0.00614  0.05
##  5  0.881  0.927 -0.0454   0.05
##  6  0.878  0.919 -0.0417   0.05
##  7  0.935  0.940 -0.00432  0.05
##  8  0.934  0.932  0.00252  0.05
##  9  0.934  0.941 -0.00666  0.05
## 10  0.928  0.933 -0.00475  0.05
## # ℹ 18,990 more rows
…
